10
1
0	0	0	7	63	0	1	84
1
0	0	0	7	63	0	85	168
1
0	0	0	7	63	0	169	252
1
0	0	0	7	63	0	253	336
1
0	0	0	7	63	0	337	420
1
0	0	0	7	63	0	421	504
1
0	0	0	7	63	0	505	588
1
0	0	0	7	63	0	589	672
1
0	0	0	7	63	0	673	760
1
0	0	0	19	63	0	761	860