10
1
0	0	0	7	37	0	1	37
1
0	0	0	7	37	0	38	74
1
0	0	0	7	37	0	75	111
1
0	0	0	7	37	0	112	148
1
0	0	0	7	37	0	149	185
1
0	0	0	7	37	0	186	222
1
0	0	0	7	37	0	223	259
1
0	0	0	7	37	0	260	296
1
0	0	0	7	39	0	297	335
1
0	0	0	19	45	0	336	380