10
1
0	0	0	7	32	0	1	32
1
0	0	0	7	32	0	33	64
1
0	0	0	7	32	0	65	96
1
0	0	0	7	32	0	97	128
1
0	0	0	7	32	0	129	160
1
0	0	0	7	32	0	161	192
1
0	0	0	7	32	0	193	224
1
0	0	0	7	32	0	225	256
1
0	0	0	7	33	0	257	289
1
0	0	0	19	31	0	290	320