10
1
0	0	0	7	63	0	1	63
1
0	0	0	7	63	0	64	126
1
0	0	0	7	63	0	127	189
1
0	0	0	7	63	0	190	252
1
0	0	0	7	63	0	253	315
1
0	0	0	7	63	0	316	378
1
0	0	0	7	63	0	379	441
1
0	0	0	7	63	0	442	504
1
0	0	0	7	63	0	505	567
1
0	0	0	19	53	0	568	620