10
1
0	0	0	7	26	0	1	26
1
0	0	0	7	26	0	27	52
1
0	0	0	7	26	0	53	78
1
0	0	0	7	26	0	79	104
1
0	0	0	7	26	0	105	130
1
0	0	0	7	26	0	131	156
1
0	0	0	7	26	0	157	182
1
0	0	0	7	26	0	183	208
1
0	0	0	7	26	0	209	234
1
0	0	0	19	26	0	235	260