10
1
0	0	0	7	63	0	1	67
1
0	0	0	7	63	0	68	134
1
0	0	0	7	63	0	135	201
1
0	0	0	7	63	0	202	268
1
0	0	0	7	63	0	269	335
1
0	0	0	7	63	0	336	402
1
0	0	0	7	63	0	403	469
1
0	0	0	7	63	0	470	536
1
0	0	0	7	63	0	537	605
1
0	0	0	19	63	0	606	680