10
1
0	0	0	7	60	0	1	60
1
0	0	0	7	60	0	61	120
1
0	0	0	7	60	0	121	180
1
0	0	0	7	60	0	181	240
1
0	0	0	7	60	0	241	300
1
0	0	0	7	60	0	301	360
1
0	0	0	7	60	0	361	420
1
0	0	0	7	60	0	421	480
1
0	0	0	7	62	0	481	542
1
0	0	0	19	63	0	543	620