10
1
0	0	0	7	63	0	1	81
1
0	0	0	7	63	0	82	162
1
0	0	0	7	63	0	163	243
1
0	0	0	7	63	0	244	324
1
0	0	0	7	63	0	325	405
1
0	0	0	7	63	0	406	486
1
0	0	0	7	63	0	487	567
1
0	0	0	7	63	0	568	648
1
0	0	0	7	63	0	649	730
1
0	0	0	19	63	0	731	800