10
1
0	0	0	7	55	0	1	55
1
0	0	0	7	55	0	56	110
1
0	0	0	7	55	0	111	165
1
0	0	0	7	55	0	166	220
1
0	0	0	7	55	0	221	275
1
0	0	0	7	55	0	276	330
1
0	0	0	7	55	0	331	385
1
0	0	0	7	55	0	386	440
1
0	0	0	7	61	0	441	501
1
0	0	0	19	59	0	502	560