10
1
0	0	0	7	63	0	1	96
1
0	0	0	7	63	0	97	192
1
0	0	0	7	63	0	193	288
1
0	0	0	7	63	0	289	384
1
0	0	0	7	63	0	385	480
1
0	0	0	7	63	0	481	576
1
0	0	0	7	63	0	577	672
1
0	0	0	7	63	0	673	768
1
0	0	0	7	63	0	769	871
1
0	0	0	19	63	0	872	980