10
1
0	0	0	7	63	0	1	92
1
0	0	0	7	63	0	93	184
1
0	0	0	7	63	0	185	276
1
0	0	0	7	63	0	277	368
1
0	0	0	7	63	0	369	460
1
0	0	0	7	63	0	461	552
1
0	0	0	7	63	0	553	644
1
0	0	0	7	63	0	645	736
1
0	0	0	7	63	0	737	834
1
0	0	0	19	63	0	835	920