10
1
0	0	0	7	50	0	1	50
1
0	0	0	7	50	0	51	100
1
0	0	0	7	50	0	101	150
1
0	0	0	7	50	0	151	200
1
0	0	0	7	50	0	201	250
1
0	0	0	7	50	0	251	300
1
0	0	0	7	50	0	301	350
1
0	0	0	7	50	0	351	400
1
0	0	0	7	53	0	401	453
1
0	0	0	19	47	0	454	500