10
1
0	0	0	7	43	0	1	43
1
0	0	0	7	43	0	44	86
1
0	0	0	7	43	0	87	129
1
0	0	0	7	43	0	130	172
1
0	0	0	7	43	0	173	215
1
0	0	0	7	43	0	216	258
1
0	0	0	7	43	0	259	301
1
0	0	0	7	43	0	302	344
1
0	0	0	7	51	0	345	395
1
0	0	0	19	45	0	396	440