10
1
0	0	0	7	63	0	1	102
1
0	0	0	7	63	0	103	204
1
0	0	0	7	63	0	205	306
1
0	0	0	7	63	0	307	408
1
0	0	0	7	63	0	409	510
1
0	0	0	7	63	0	511	612
1
0	0	0	7	63	0	613	714
1
0	0	0	7	63	0	715	816
1
0	0	0	7	63	0	817	925
1
0	0	0	19	63	0	926	1040