10
1
0	0	0	7	63	0	1	86
1
0	0	0	7	63	0	87	172
1
0	0	0	7	63	0	173	258
1
0	0	0	7	63	0	259	344
1
0	0	0	7	63	0	345	430
1
0	0	0	7	63	0	431	516
1
0	0	0	7	63	0	517	602
1
0	0	0	7	63	0	603	688
1
0	0	0	7	63	0	689	781
1
0	0	0	19	63	0	782	860