10
1
0	0	0	7	63	0	1	85
1
0	0	0	7	63	0	86	170
1
0	0	0	7	63	0	171	255
1
0	0	0	7	63	0	256	340
1
0	0	0	7	63	0	341	425
1
0	0	0	7	63	0	426	510
1
0	0	0	7	63	0	511	595
1
0	0	0	7	63	0	596	680
1
0	0	0	7	63	0	681	770
1
0	0	0	19	63	0	771	860