10
1
0	0	0	7	63	0	1	79
1
0	0	0	7	63	0	80	158
1
0	0	0	7	63	0	159	237
1
0	0	0	7	63	0	238	316
1
0	0	0	7	63	0	317	395
1
0	0	0	7	63	0	396	474
1
0	0	0	7	63	0	475	553
1
0	0	0	7	63	0	554	632
1
0	0	0	7	63	0	633	714
1
0	0	0	19	63	0	715	800