10
1
0	0	0	7	63	0	1	91
1
0	0	0	7	63	0	92	182
1
0	0	0	7	63	0	183	273
1
0	0	0	7	63	0	274	364
1
0	0	0	7	63	0	365	455
1
0	0	0	7	63	0	456	546
1
0	0	0	7	63	0	547	637
1
0	0	0	7	63	0	638	728
1
0	0	0	7	63	0	729	827
1
0	0	0	19	63	0	828	920