10
1
0	0	0	7	36	0	1	36
1
0	0	0	7	36	0	37	72
1
0	0	0	7	36	0	73	108
1
0	0	0	7	36	0	109	144
1
0	0	0	7	36	0	145	180
1
0	0	0	7	36	0	181	216
1
0	0	0	7	36	0	217	252
1
0	0	0	7	36	0	253	288
1
0	0	0	7	43	0	289	331
1
0	0	0	19	49	0	332	380