10
1
0	0	0	7	48	0	1	48
1
0	0	0	7	48	0	49	96
1
0	0	0	7	48	0	97	144
1
0	0	0	7	48	0	145	192
1
0	0	0	7	48	0	193	240
1
0	0	0	7	48	0	241	288
1
0	0	0	7	48	0	289	336
1
0	0	0	7	48	0	337	384
1
0	0	0	7	56	0	385	440
1
0	0	0	19	60	0	441	500