10
1
0	0	0	7	63	0	1	73
1
0	0	0	7	63	0	74	146
1
0	0	0	7	63	0	147	219
1
0	0	0	7	63	0	220	292
1
0	0	0	7	63	0	293	365
1
0	0	0	7	63	0	366	438
1
0	0	0	7	63	0	439	511
1
0	0	0	7	63	0	512	584
1
0	0	0	7	63	0	585	662
1
0	0	0	19	63	0	663	740