10
1
0	0	0	7	63	0	1	105
1
0	0	0	7	63	0	106	210
1
0	0	0	7	63	0	211	315
1
0	0	0	7	63	0	316	420
1
0	0	0	7	63	0	421	525
1
0	0	0	7	63	0	526	630
1
0	0	0	7	63	0	631	735
1
0	0	0	7	63	0	736	840
1
0	0	0	7	63	0	841	950
1
0	0	0	19	63	0	951	1040