10
1
0	0	0	7	38	0	1	38
1
0	0	0	7	38	0	39	76
1
0	0	0	7	38	0	77	114
1
0	0	0	7	38	0	115	152
1
0	0	0	7	38	0	153	190
1
0	0	0	7	38	0	191	228
1
0	0	0	7	38	0	229	266
1
0	0	0	7	38	0	267	304
1
0	0	0	7	45	0	305	349
1
0	0	0	19	31	0	350	380