10
1
0	0	0	7	63	0	1	93
1
0	0	0	7	63	0	94	186
1
0	0	0	7	63	0	187	279
1
0	0	0	7	63	0	280	372
1
0	0	0	7	63	0	373	465
1
0	0	0	7	63	0	466	558
1
0	0	0	7	63	0	559	651
1
0	0	0	7	63	0	652	744
1
0	0	0	7	63	0	745	840
1
0	0	0	19	63	0	841	920