10
1
0	0	0	7	62	0	1	62
1
0	0	0	7	62	0	63	124
1
0	0	0	7	62	0	125	186
1
0	0	0	7	62	0	187	248
1
0	0	0	7	62	0	249	310
1
0	0	0	7	62	0	311	372
1
0	0	0	7	62	0	373	434
1
0	0	0	7	62	0	435	496
1
0	0	0	7	63	0	497	562
1
0	0	0	19	58	0	563	620