10
1
0	0	0	7	63	0	1	80
1
0	0	0	7	63	0	81	160
1
0	0	0	7	63	0	161	240
1
0	0	0	7	63	0	241	320
1
0	0	0	7	63	0	321	400
1
0	0	0	7	63	0	401	480
1
0	0	0	7	63	0	481	560
1
0	0	0	7	63	0	561	640
1
0	0	0	7	63	0	641	720
1
0	0	0	19	63	0	721	800