10
1
0	0	0	7	25	0	1	25
1
0	0	0	7	25	0	26	50
1
0	0	0	7	25	0	51	75
1
0	0	0	7	25	0	76	100
1
0	0	0	7	25	0	101	125
1
0	0	0	7	25	0	126	150
1
0	0	0	7	25	0	151	175
1
0	0	0	7	25	0	176	200
1
0	0	0	7	33	0	201	233
1
0	0	0	19	27	0	234	260