10
1
0	0	0	7	63	0	1	97
1
0	0	0	7	63	0	98	194
1
0	0	0	7	63	0	195	291
1
0	0	0	7	63	0	292	388
1
0	0	0	7	63	0	389	485
1
0	0	0	7	63	0	486	582
1
0	0	0	7	63	0	583	679
1
0	0	0	7	63	0	680	776
1
0	0	0	7	63	0	777	881
1
0	0	0	19	63	0	882	980