10
1
0	0	0	7	56	0	1	56
1
0	0	0	7	56	0	57	112
1
0	0	0	7	56	0	113	168
1
0	0	0	7	56	0	169	224
1
0	0	0	7	56	0	225	280
1
0	0	0	7	56	0	281	336
1
0	0	0	7	56	0	337	392
1
0	0	0	7	56	0	393	448
1
0	0	0	7	63	0	449	512
1
0	0	0	19	48	0	513	560