10
1
0	0	0	7	61	0	1	61
1
0	0	0	7	61	0	62	122
1
0	0	0	7	61	0	123	183
1
0	0	0	7	61	0	184	244
1
0	0	0	7	61	0	245	305
1
0	0	0	7	61	0	306	366
1
0	0	0	7	61	0	367	427
1
0	0	0	7	61	0	428	488
1
0	0	0	7	63	0	489	556
1
0	0	0	19	63	0	557	620