10
1
0	0	0	7	63	0	1	68
1
0	0	0	7	63	0	69	136
1
0	0	0	7	63	0	137	204
1
0	0	0	7	63	0	205	272
1
0	0	0	7	63	0	273	340
1
0	0	0	7	63	0	341	408
1
0	0	0	7	63	0	409	476
1
0	0	0	7	63	0	477	544
1
0	0	0	7	63	0	545	613
1
0	0	0	19	63	0	614	680