10
1
0	0	0	7	63	0	1	98
1
0	0	0	7	63	0	99	196
1
0	0	0	7	63	0	197	294
1
0	0	0	7	63	0	295	392
1
0	0	0	7	63	0	393	490
1
0	0	0	7	63	0	491	588
1
0	0	0	7	63	0	589	686
1
0	0	0	7	63	0	687	784
1
0	0	0	7	63	0	785	888
1
0	0	0	19	63	0	889	980