10
1
0	0	0	7	16	0	1	16
1
0	0	0	7	16	0	17	32
1
0	0	0	7	16	0	33	48
1
0	0	0	7	16	0	49	64
1
0	0	0	7	16	0	65	80
1
0	0	0	7	16	0	81	96
1
0	0	0	7	16	0	97	112
1
0	0	0	7	16	0	113	128
1
0	0	0	7	10	0	129	138
1
0	0	0	19	22	0	139	160